[2022-01-25 22:36:12,229] INFO [setUpClass testcase_01_login.py 15] Login接口用例页开始
[2022-01-25 22:36:12,242] DEBUG [_new_conn connectionpool.py 221] Starting new HTTP connection (1): 192.168.107.135:80
[2022-01-25 22:36:12,267] DEBUG [_make_request connectionpool.py 428] http://192.168.107.135:80 "GET /freshO2O/login.action?account=admin&password=admin HTTP/1.1" 200 91
[2022-01-25 22:36:12,268] INFO [TestCase_Log testcase_log.py 9] 测试用例：Login_para_nomal
[2022-01-25 22:36:12,269] INFO [TestCase_Log testcase_log.py 10] Url：http://192.168.107.135:80/freshO2O/login.action
[2022-01-25 22:36:12,269] INFO [TestCase_Log testcase_log.py 11] 请求参数：{"account":"admin","password":"admin"}
[2022-01-25 22:36:12,270] INFO [TestCase_Log testcase_log.py 12] 期望结果：{"result": "ok"}
[2022-01-25 22:36:12,270] INFO [TestCase_Log testcase_log.py 13] 实际结果：{"account":"admin","addr":null,"msg":"账户名不存在","password":"admin","result":"ok"}
[2022-01-25 22:36:12,271] INFO [testLogin testcase_01_login.py 24] 测试结果为Pass
[2022-01-25 22:36:12,320] DEBUG [_new_conn connectionpool.py 221] Starting new HTTP connection (1): 192.168.107.135:80
[2022-01-25 22:36:12,345] DEBUG [_make_request connectionpool.py 428] http://192.168.107.135:80 "GET /freshO2O/login.action?account=admin&password=admin&result=error HTTP/1.1" 200 91
[2022-01-25 22:36:12,346] INFO [TestCase_Log testcase_log.py 9] 测试用例：Login_para_mix
[2022-01-25 22:36:12,347] INFO [TestCase_Log testcase_log.py 10] Url：http://192.168.107.135:80/freshO2O/login.action
[2022-01-25 22:36:12,347] INFO [TestCase_Log testcase_log.py 11] 请求参数：{"account":"admin","password":"admin","result":"error"}
[2022-01-25 22:36:12,348] INFO [TestCase_Log testcase_log.py 12] 期望结果：{"result": "error"}
[2022-01-25 22:36:12,348] INFO [TestCase_Log testcase_log.py 13] 实际结果：{"account":"admin","addr":null,"msg":"账户名不存在","password":"admin","result":"ok"}
[2022-01-25 22:36:12,349] INFO [testLogin testcase_01_login.py 27] 测试结果为Fail,具体原因是：'ok' != 'error'
- ok
+ error
 : 断言失败
[2022-01-25 22:36:12,405] DEBUG [_new_conn connectionpool.py 221] Starting new HTTP connection (1): 192.168.107.135:80
[2022-01-25 22:36:12,434] DEBUG [_make_request connectionpool.py 428] http://192.168.107.135:80 "GET /freshO2O/login.action?account=admin&password=123456 HTTP/1.1" 200 92
[2022-01-25 22:36:12,435] INFO [TestCase_Log testcase_log.py 9] 测试用例：Login_para_type
[2022-01-25 22:36:12,436] INFO [TestCase_Log testcase_log.py 10] Url：http://192.168.107.135:80/freshO2O/login.action
[2022-01-25 22:36:12,436] INFO [TestCase_Log testcase_log.py 11] 请求参数：{"account":"admin","password":123456}
[2022-01-25 22:36:12,437] INFO [TestCase_Log testcase_log.py 12] 期望结果：{"result": "error"}
[2022-01-25 22:36:12,437] INFO [TestCase_Log testcase_log.py 13] 实际结果：{"account":"admin","addr":null,"msg":"密码不正确","password":"123456","result":"error"}
[2022-01-25 22:36:12,438] INFO [testLogin testcase_01_login.py 24] 测试结果为Pass
[2022-01-25 22:36:12,498] DEBUG [_new_conn connectionpool.py 221] Starting new HTTP connection (1): 192.168.107.135:80
[2022-01-25 22:36:12,513] DEBUG [_make_request connectionpool.py 428] http://192.168.107.135:80 "GET /freshO2O/login.action?account=adminadminadminadmin&password=admin HTTP/1.1" 200 109
[2022-01-25 22:36:12,514] INFO [TestCase_Log testcase_log.py 9] 测试用例：Login_para_len
[2022-01-25 22:36:12,515] INFO [TestCase_Log testcase_log.py 10] Url：http://192.168.107.135:80/freshO2O/login.action
[2022-01-25 22:36:12,515] INFO [TestCase_Log testcase_log.py 11] 请求参数：{"account":"adminadminadminadmin","password":"admin"}
[2022-01-25 22:36:12,516] INFO [TestCase_Log testcase_log.py 12] 期望结果：{"result": "error"}
[2022-01-25 22:36:12,516] INFO [TestCase_Log testcase_log.py 13] 实际结果：{"account":"adminadminadminadmin","addr":null,"msg":"账户名不存在","password":"admin","result":"error"}
[2022-01-25 22:36:12,517] INFO [testLogin testcase_01_login.py 24] 测试结果为Pass
[2022-01-25 22:36:12,594] DEBUG [_new_conn connectionpool.py 221] Starting new HTTP connection (1): 192.168.107.135:80
[2022-01-25 22:36:12,609] DEBUG [_make_request connectionpool.py 428] http://192.168.107.135:80 "GET /freshO2O/login.action?account=admin HTTP/1.1" 200 91
[2022-01-25 22:36:12,611] INFO [TestCase_Log testcase_log.py 9] 测试用例：Login_para_opposite
[2022-01-25 22:36:12,612] INFO [TestCase_Log testcase_log.py 10] Url：http://192.168.107.135:80/freshO2O/login.action
[2022-01-25 22:36:12,613] INFO [TestCase_Log testcase_log.py 11] 请求参数：{"account":"admin"}
[2022-01-25 22:36:12,613] INFO [TestCase_Log testcase_log.py 12] 期望结果：{"result": "error"}
[2022-01-25 22:36:12,614] INFO [TestCase_Log testcase_log.py 13] 实际结果：{"account":"admin","addr":null,"msg":"账户名不存在","password":"admin","result":"ok"}
[2022-01-25 22:36:12,615] INFO [testLogin testcase_01_login.py 27] 测试结果为Fail,具体原因是：'ok' != 'error'
- ok
+ error
 : 断言失败
[2022-01-25 22:36:12,709] DEBUG [_new_conn connectionpool.py 221] Starting new HTTP connection (1): 192.168.107.135:80
[2022-01-25 22:36:12,738] DEBUG [_make_request connectionpool.py 428] http://192.168.107.135:80 "GET /freshO2O/login.action?password=admin HTTP/1.1" 200 91
[2022-01-25 22:36:12,740] INFO [TestCase_Log testcase_log.py 9] 测试用例：Login_bypass_ui
[2022-01-25 22:36:12,740] INFO [TestCase_Log testcase_log.py 10] Url：http://192.168.107.135:80/freshO2O/login.action
[2022-01-25 22:36:12,741] INFO [TestCase_Log testcase_log.py 11] 请求参数：{"password":"admin"}
[2022-01-25 22:36:12,742] INFO [TestCase_Log testcase_log.py 12] 期望结果：{"result": "error"}
[2022-01-25 22:36:12,743] INFO [TestCase_Log testcase_log.py 13] 实际结果：{"account":"admin","addr":null,"msg":"账户名不存在","password":"admin","result":"ok"}
[2022-01-25 22:36:12,748] INFO [testLogin testcase_01_login.py 27] 测试结果为Fail,具体原因是：'ok' != 'error'
- ok
+ error
 : 断言失败
[2022-01-25 22:36:12,830] DEBUG [_new_conn connectionpool.py 221] Starting new HTTP connection (1): 192.168.107.135:80
[2022-01-25 22:36:12,847] DEBUG [_make_request connectionpool.py 428] http://192.168.107.135:80 "GET /freshO2O/login.action?account=hc&password=admin HTTP/1.1" 200 91
[2022-01-25 22:36:12,848] INFO [TestCase_Log testcase_log.py 9] 测试用例：Login_bypass_auth
[2022-01-25 22:36:12,849] INFO [TestCase_Log testcase_log.py 10] Url：http://192.168.107.135:80/freshO2O/login.action
[2022-01-25 22:36:12,849] INFO [TestCase_Log testcase_log.py 11] 请求参数：{"account":"hc","password":"admin"}
[2022-01-25 22:36:12,849] INFO [TestCase_Log testcase_log.py 12] 期望结果：{"result": "error"}
[2022-01-25 22:36:12,850] INFO [TestCase_Log testcase_log.py 13] 实际结果：{"account":"hc","addr":null,"msg":"账户名不存在","password":"admin","result":"error"}
[2022-01-25 22:36:12,851] INFO [testLogin testcase_01_login.py 24] 测试结果为Pass
[2022-01-25 22:36:12,918] DEBUG [_new_conn connectionpool.py 221] Starting new HTTP connection (1): 192.168.107.135:80
[2022-01-25 22:36:12,944] DEBUG [_make_request connectionpool.py 428] http://192.168.107.135:80 "GET /freshO2O/login.action?account=lisi&password=lisi HTTP/1.1" 200 105
[2022-01-25 22:36:12,945] INFO [TestCase_Log testcase_log.py 9] 测试用例：Login_business_logic
[2022-01-25 22:36:12,945] INFO [TestCase_Log testcase_log.py 10] Url：http://192.168.107.135:80/freshO2O/login.action
[2022-01-25 22:36:12,946] INFO [TestCase_Log testcase_log.py 11] 请求参数：{"account":"admin","password":"admin","account":"lisi","password":"lisi"}
[2022-01-25 22:36:12,946] INFO [TestCase_Log testcase_log.py 12] 期望结果：{"result": "error"}
[2022-01-25 22:36:12,947] INFO [TestCase_Log testcase_log.py 13] 实际结果：{"account":"lisi","addr":"广州市黄埔区","msg":"账户名不存在","password":"lisi","result":"ok"}
[2022-01-25 22:36:12,948] INFO [testLogin testcase_01_login.py 27] 测试结果为Fail,具体原因是：'ok' != 'error'
- ok
+ error
 : 断言失败
[2022-01-25 22:36:13,012] INFO [tearDownClass testcase_01_login.py 36] Login接口用例页结束
[2022-01-25 22:36:13,013] INFO [setUpClass testcase_02_register.py 14] Register接口用例页开始
[2022-01-25 22:36:13,090] DEBUG [_new_conn connectionpool.py 221] Starting new HTTP connection (1): 192.168.107.135:80
[2022-01-25 22:36:13,187] DEBUG [_make_request connectionpool.py 428] http://192.168.107.135:80 "POST /freshO2O/userAdd.action HTTP/1.1" 200 188
[2022-01-25 22:36:13,188] INFO [TestCase_Log testcase_log.py 9] 测试用例：Register_para_nomal
[2022-01-25 22:36:13,188] INFO [TestCase_Log testcase_log.py 10] Url：http://192.168.107.135:80/freshO2O/userAdd.action
[2022-01-25 22:36:13,189] INFO [TestCase_Log testcase_log.py 11] 请求参数：{"account":"hc","password":"hc66666","phone":"13349678458","addr":"深圳市南山区沙河街道"}
[2022-01-25 22:36:13,190] INFO [TestCase_Log testcase_log.py 12] 期望结果：{"result":"ok"}
[2022-01-25 22:36:13,190] INFO [TestCase_Log testcase_log.py 13] 实际结果：{"account":"hc","addr":"深圳市南山区沙河街道","birthday":null,"email":null,"id":0,"integrate":0,"msg":"","nickname":null,"password":"hc66666","phone":"13349678458","result":"ok"}
[2022-01-25 22:36:13,192] INFO [testRegister testcase_02_register.py 34] 测试结果为Pass
[2022-01-25 22:36:13,281] DEBUG [_new_conn connectionpool.py 221] Starting new HTTP connection (1): 192.168.107.135:80
[2022-01-25 22:36:13,294] DEBUG [_make_request connectionpool.py 428] http://192.168.107.135:80 "POST /freshO2O/userAdd.action HTTP/1.1" 200 216
[2022-01-25 22:36:13,296] INFO [TestCase_Log testcase_log.py 9] 测试用例：Register_para_mix
[2022-01-25 22:36:13,296] INFO [TestCase_Log testcase_log.py 10] Url：http://192.168.107.135:80/freshO2O/userAdd.action
[2022-01-25 22:36:13,297] INFO [TestCase_Log testcase_log.py 11] 请求参数：{"account":"hc2","password":"hc66666","nickname":"hc2","addr":"深圳市南山区沙河街道"}
[2022-01-25 22:36:13,298] INFO [TestCase_Log testcase_log.py 12] 期望结果：{"result":"fail"}
[2022-01-25 22:36:13,298] INFO [TestCase_Log testcase_log.py 13] 实际结果：{"account":"hc2","addr":"深圳市南山区沙河街道","birthday":null,"email":null,"id":0,"integrate":0,"msg":"账户名已经存在！","nickname":"hc2","password":"hc66666","phone":"13349678458","result":"fail"}
[2022-01-25 22:36:13,300] INFO [testRegister testcase_02_register.py 47] 测试结果为Fail
[2022-01-25 22:36:13,323] INFO [testRegister testcase_02_register.py 51] 测试结果为Fail
[2022-01-25 22:36:13,422] DEBUG [_new_conn connectionpool.py 221] Starting new HTTP connection (1): 192.168.107.135:80
[2022-01-25 22:36:13,439] DEBUG [_make_request connectionpool.py 428] http://192.168.107.135:80 "POST /freshO2O/userAdd.action HTTP/1.1" 200 232
[2022-01-25 22:36:13,440] INFO [TestCase_Log testcase_log.py 9] 测试用例：Register_para_len
[2022-01-25 22:36:13,441] INFO [TestCase_Log testcase_log.py 10] Url：http://192.168.107.135:80/freshO2O/userAdd.action
[2022-01-25 22:36:13,441] INFO [TestCase_Log testcase_log.py 11] 请求参数：{"account":"hc4","password":"hc66666","phone":"158735667527356675273566752","addr":"深圳市南山区沙河街道"}
[2022-01-25 22:36:13,442] INFO [TestCase_Log testcase_log.py 12] 期望结果：{"result":"fail"}
[2022-01-25 22:36:13,442] INFO [TestCase_Log testcase_log.py 13] 实际结果：{"account":"hc4","addr":"深圳市南山区沙河街道","birthday":null,"email":null,"id":0,"integrate":0,"msg":"非法的电话号码！","nickname":"hc2","password":"hc66666","phone":"158735667527356675273566752","result":"fail"}
[2022-01-25 22:36:13,444] INFO [testRegister testcase_02_register.py 44] 测试结果为Pass
[2022-01-25 22:36:13,534] DEBUG [_new_conn connectionpool.py 221] Starting new HTTP connection (1): 192.168.107.135:80
[2022-01-25 22:36:13,554] DEBUG [_make_request connectionpool.py 428] http://192.168.107.135:80 "POST /freshO2O/userAdd.action HTTP/1.1" 200 217
[2022-01-25 22:36:13,555] INFO [TestCase_Log testcase_log.py 9] 测试用例：Register_bypass_ui
[2022-01-25 22:36:13,556] INFO [TestCase_Log testcase_log.py 10] Url：http://192.168.107.135:80/freshO2O/userAdd.action
[2022-01-25 22:36:13,556] INFO [TestCase_Log testcase_log.py 11] 请求参数：{"account":"hc5","password":"hc66666","phone":"-15873566752","addr":"深圳市南山区沙河街道"}
[2022-01-25 22:36:13,557] INFO [TestCase_Log testcase_log.py 12] 期望结果：{"result":"fail"}
[2022-01-25 22:36:13,557] INFO [TestCase_Log testcase_log.py 13] 实际结果：{"account":"hc5","addr":"深圳市南山区沙河街道","birthday":null,"email":null,"id":0,"integrate":0,"msg":"非法的电话号码！","nickname":"hc2","password":"hc66666","phone":"-15873566752","result":"fail"}
[2022-01-25 22:36:13,560] INFO [testRegister testcase_02_register.py 44] 测试结果为Pass
[2022-01-25 22:36:13,656] DEBUG [_new_conn connectionpool.py 221] Starting new HTTP connection (1): 192.168.107.135:80
[2022-01-25 22:36:13,670] DEBUG [_make_request connectionpool.py 428] http://192.168.107.135:80 "POST /freshO2O/userAdd.action HTTP/1.1" 200 222
[2022-01-25 22:36:13,672] INFO [TestCase_Log testcase_log.py 9] 测试用例：Register_bypass_auth
[2022-01-25 22:36:13,672] INFO [TestCase_Log testcase_log.py 10] Url：http://192.168.107.135:80/freshO2O/userAdd.action
[2022-01-25 22:36:13,673] INFO [TestCase_Log testcase_log.py 11] 请求参数：{"account":"hc3","password":"admin","addr":"深圳市南山区沙河街道"}
[2022-01-25 22:36:13,673] INFO [TestCase_Log testcase_log.py 12] 期望结果：{"result":"fail"}
[2022-01-25 22:36:13,674] INFO [TestCase_Log testcase_log.py 13] 实际结果：{"account":"hc3","addr":"深圳市南山区沙河街道","birthday":null,"email":null,"id":0,"integrate":0,"msg":"密码至少需要6位字符！","nickname":"hc2","password":"admin","phone":"-15873566752","result":"fail"}
[2022-01-25 22:36:13,676] INFO [testRegister testcase_02_register.py 44] 测试结果为Pass
[2022-01-25 22:36:13,745] DEBUG [_new_conn connectionpool.py 221] Starting new HTTP connection (1): 192.168.107.135:80
[2022-01-25 22:36:13,757] DEBUG [_make_request connectionpool.py 428] http://192.168.107.135:80 "POST /freshO2O/userAdd.action HTTP/1.1" 200 216
[2022-01-25 22:36:13,758] INFO [TestCase_Log testcase_log.py 9] 测试用例：Register_business_logic
[2022-01-25 22:36:13,758] INFO [TestCase_Log testcase_log.py 10] Url：http://192.168.107.135:80/freshO2O/userAdd.action
[2022-01-25 22:36:13,759] INFO [TestCase_Log testcase_log.py 11] 请求参数：{"account":"hc6","password":"hc66666","phone":"15873566752","addr":"深圳市南山区沙河街道","phone":"15873566752"}
[2022-01-25 22:36:13,760] INFO [TestCase_Log testcase_log.py 12] 期望结果：{"result":"fail"}
[2022-01-25 22:36:13,760] INFO [TestCase_Log testcase_log.py 13] 实际结果：{"account":"hc6","addr":"深圳市南山区沙河街道","birthday":null,"email":null,"id":0,"integrate":0,"msg":"非法的电话号码！","nickname":"hc2","password":"hc66666","phone":"15873566752","result":"fail"}
[2022-01-25 22:36:13,763] INFO [testRegister testcase_02_register.py 44] 测试结果为Pass
[2022-01-25 22:36:13,807] INFO [tearDownClass testcase_02_register.py 65] Register接口用例页结束
[2022-01-25 22:36:13,807] INFO [setUpClass testcase_03_queryReceiveAddr.py 14] queryReceiveAddr接口测试页开始
[2022-01-25 22:36:13,811] DEBUG [_new_conn connectionpool.py 221] Starting new HTTP connection (1): 192.168.107.135:80
[2022-01-25 22:36:13,893] DEBUG [_make_request connectionpool.py 428] http://192.168.107.135:80 "POST /freshO2O/receiveaddrSelect.action HTTP/1.1" 200 284
[2022-01-25 22:36:13,894] INFO [TestCase_Log testcase_log.py 9] 测试用例：queryReceiveAddr_para_nomal
[2022-01-25 22:36:13,894] INFO [TestCase_Log testcase_log.py 10] Url：http://192.168.107.135:80/freshO2O/receiveaddrSelect.action
[2022-01-25 22:36:13,895] INFO [TestCase_Log testcase_log.py 11] 请求参数：{"username":"admin"}
[2022-01-25 22:36:13,895] INFO [TestCase_Log testcase_log.py 12] 期望结果：{"result":"ok"}
[2022-01-25 22:36:13,896] INFO [TestCase_Log testcase_log.py 13] 实际结果：{"gotoPage":0,"list":[{"account":"admin","address":"深圳市宝安区中南花园","defaultaddr":"深圳市宝安区中南花园","id":1,"phone":"18923680916","username":"amin"}],"msg":"","pageCount":5000,"pageIndex":1,"result":"ok","totalCount":115,"totalPage":1,"username":"admin"}
[2022-01-25 22:36:13,898] INFO [testQueryReceiveAddr testcase_03_queryReceiveAddr.py 27] 测试结果为Pass
[2022-01-25 22:36:13,956] DEBUG [_new_conn connectionpool.py 221] Starting new HTTP connection (1): 192.168.107.135:80
[2022-01-25 22:36:13,988] DEBUG [_make_request connectionpool.py 428] http://192.168.107.135:80 "POST /freshO2O/receiveaddrSelect.action HTTP/1.1" 200 284
[2022-01-25 22:36:13,990] INFO [TestCase_Log testcase_log.py 9] 测试用例：queryReceiveAddr_para_mix
[2022-01-25 22:36:13,991] INFO [TestCase_Log testcase_log.py 10] Url：http://192.168.107.135:80/freshO2O/receiveaddrSelect.action
[2022-01-25 22:36:13,992] INFO [TestCase_Log testcase_log.py 11] 请求参数：{"username":"admin","msg":"查询到0条记录！"}
[2022-01-25 22:36:13,993] INFO [TestCase_Log testcase_log.py 12] 期望结果：{"result":"fail"}
[2022-01-25 22:36:13,994] INFO [TestCase_Log testcase_log.py 13] 实际结果：{"gotoPage":0,"list":[{"account":"admin","address":"深圳市宝安区中南花园","defaultaddr":"深圳市宝安区中南花园","id":1,"phone":"18923680916","username":"amin"}],"msg":"","pageCount":5000,"pageIndex":1,"result":"ok","totalCount":115,"totalPage":1,"username":"admin"}
[2022-01-25 22:36:13,995] INFO [testQueryReceiveAddr testcase_03_queryReceiveAddr.py 30] 测试结果为Fail,具体原因是：'ok' != 'fail'
- ok
+ fail
 : 断言失败
[2022-01-25 22:36:14,050] DEBUG [_new_conn connectionpool.py 221] Starting new HTTP connection (1): 192.168.107.135:80
[2022-01-25 22:36:14,079] DEBUG [_make_request connectionpool.py 428] http://192.168.107.135:80 "POST /freshO2O/receiveaddrSelect.action HTTP/1.1" 200 149
[2022-01-25 22:36:14,081] INFO [TestCase_Log testcase_log.py 9] 测试用例：queryReceiveAddr_para_type
[2022-01-25 22:36:14,082] INFO [TestCase_Log testcase_log.py 10] Url：http://192.168.107.135:80/freshO2O/receiveaddrSelect.action
[2022-01-25 22:36:14,083] INFO [TestCase_Log testcase_log.py 11] 请求参数：{"username":66}
[2022-01-25 22:36:14,083] INFO [TestCase_Log testcase_log.py 12] 期望结果：{"result":"fail"}
[2022-01-25 22:36:14,084] INFO [TestCase_Log testcase_log.py 13] 实际结果：{"gotoPage":0,"list":[],"msg":"查询到0条记录！","pageCount":5000,"pageIndex":1,"result":"fail","totalCount":115,"totalPage":1,"username":"66"}
[2022-01-25 22:36:14,084] INFO [testQueryReceiveAddr testcase_03_queryReceiveAddr.py 27] 测试结果为Pass
[2022-01-25 22:36:14,167] DEBUG [_new_conn connectionpool.py 221] Starting new HTTP connection (1): 192.168.107.135:80
[2022-01-25 22:36:14,221] DEBUG [_make_request connectionpool.py 428] http://192.168.107.135:80 "POST /freshO2O/receiveaddrSelect.action HTTP/1.1" 200 182
[2022-01-25 22:36:14,222] INFO [TestCase_Log testcase_log.py 9] 测试用例：queryReceiveAddr_para_len
[2022-01-25 22:36:14,223] INFO [TestCase_Log testcase_log.py 10] Url：http://192.168.107.135:80/freshO2O/receiveaddrSelect.action
[2022-01-25 22:36:14,224] INFO [TestCase_Log testcase_log.py 11] 请求参数：{"username":"adminadminadminadminadminadminadmin"}
[2022-01-25 22:36:14,224] INFO [TestCase_Log testcase_log.py 12] 期望结果：{"result":"fail"}
[2022-01-25 22:36:14,225] INFO [TestCase_Log testcase_log.py 13] 实际结果：{"gotoPage":0,"list":[],"msg":"查询到0条记录！","pageCount":5000,"pageIndex":1,"result":"fail","totalCount":115,"totalPage":1,"username":"adminadminadminadminadminadminadmin"}
[2022-01-25 22:36:14,225] INFO [testQueryReceiveAddr testcase_03_queryReceiveAddr.py 27] 测试结果为Pass
[2022-01-25 22:36:14,333] DEBUG [_new_conn connectionpool.py 221] Starting new HTTP connection (1): 192.168.107.135:80
[2022-01-25 22:36:14,373] DEBUG [_make_request connectionpool.py 428] http://192.168.107.135:80 "POST /freshO2O/receiveaddrSelect.action HTTP/1.1" 200 284
[2022-01-25 22:36:14,374] INFO [TestCase_Log testcase_log.py 9] 测试用例：queryReceiveAddr_business_logic
[2022-01-25 22:36:14,374] INFO [TestCase_Log testcase_log.py 10] Url：http://192.168.107.135:80/freshO2O/receiveaddrSelect.action
[2022-01-25 22:36:14,375] INFO [TestCase_Log testcase_log.py 11] 请求参数：{"username":"admin","username":"admin"}
[2022-01-25 22:36:14,375] INFO [TestCase_Log testcase_log.py 12] 期望结果：{"result":"fail"}
[2022-01-25 22:36:14,376] INFO [TestCase_Log testcase_log.py 13] 实际结果：{"gotoPage":0,"list":[{"account":"admin","address":"深圳市宝安区中南花园","defaultaddr":"深圳市宝安区中南花园","id":1,"phone":"18923680916","username":"amin"}],"msg":"","pageCount":5000,"pageIndex":1,"result":"ok","totalCount":115,"totalPage":1,"username":"admin"}
[2022-01-25 22:36:14,376] INFO [testQueryReceiveAddr testcase_03_queryReceiveAddr.py 30] 测试结果为Fail,具体原因是：'ok' != 'fail'
- ok
+ fail
 : 断言失败
[2022-01-25 22:36:14,434] INFO [tearDownClass testcase_03_queryReceiveAddr.py 38] queryReceiveAddr接口测试页结束
[2022-01-25 22:36:14,480] INFO [<module> run_all.py 18] =============测试结束=============
[2022-01-25 22:36:14,480] INFO [<module> run_all.py 18] =============测试结束=============
