[2022-01-27 21:04:36,998] INFO [<module> run_all.py 11] =============测试开始=============
[2022-01-27 21:04:37,756] INFO [setUpClass testcase_01_login.py 15] Login接口用例页开始
[2022-01-27 21:07:06,114] INFO [TestCase_Log testcase_log.py 9] 测试用例：Login_business_logic
[2022-01-27 21:07:06,114] INFO [TestCase_Log testcase_log.py 10] Url：http://192.168.107.135:80/freshO2O/login.action
[2022-01-27 21:07:06,115] INFO [TestCase_Log testcase_log.py 11] 请求参数：{"account":"admin","password":"admin","account":"lisi","password":"lisi"}
[2022-01-27 21:07:06,115] INFO [TestCase_Log testcase_log.py 12] 期望结果：{"result": "error"}
[2022-01-27 21:07:06,115] INFO [TestCase_Log testcase_log.py 13] 实际结果：{"account":"lisi","addr":"广州市黄埔区","msg":null,"password":"lisi","result":"ok"}
[2022-01-27 21:07:06,115] INFO [testLogin testcase_01_login.py 27] 测试结果为Fail,具体原因是：'ok' != 'error'
- ok
+ error
 : 断言失败
[2022-01-27 21:07:06,246] INFO [tearDownClass testcase_01_login.py 36] Login接口用例页结束
[2022-01-27 21:07:06,246] INFO [setUpClass testcase_02_register.py 14] Register接口用例页开始
[2022-01-27 21:07:06,413] INFO [TestCase_Log testcase_log.py 9] 测试用例：Register_para_nomal
[2022-01-27 21:07:06,413] INFO [TestCase_Log testcase_log.py 10] Url：http://192.168.107.135:80/freshO2O/userAdd.action
[2022-01-27 21:07:06,413] INFO [TestCase_Log testcase_log.py 11] 请求参数：{"account":"hc","password":"hc66666","phone":"13349678458","addr":"深圳市南山区沙河街道"}
[2022-01-27 21:07:06,413] INFO [TestCase_Log testcase_log.py 12] 期望结果：{"result":"ok"}
[2022-01-27 21:07:06,414] INFO [TestCase_Log testcase_log.py 13] 实际结果：{"account":"hc","addr":"深圳市南山区沙河街道","birthday":null,"email":null,"id":0,"integrate":0,"msg":"","nickname":null,"password":"hc66666","phone":"13349678458","result":"ok"}
[2022-01-27 21:07:06,416] INFO [testRegister testcase_02_register.py 34] 测试结果为Pass
[2022-01-27 21:07:06,542] INFO [TestCase_Log testcase_log.py 9] 测试用例：Register_para_mix
[2022-01-27 21:07:06,542] INFO [TestCase_Log testcase_log.py 10] Url：http://192.168.107.135:80/freshO2O/userAdd.action
[2022-01-27 21:07:06,542] INFO [TestCase_Log testcase_log.py 11] 请求参数：{"account":"hc2","password":"hc66666","nickname":"hc2","addr":"深圳市南山区沙河街道"}
[2022-01-27 21:07:06,543] INFO [TestCase_Log testcase_log.py 12] 期望结果：{"result":"fail"}
[2022-01-27 21:07:06,543] INFO [TestCase_Log testcase_log.py 13] 实际结果：{"account":"hc2","addr":"深圳市南山区沙河街道","birthday":null,"email":null,"id":0,"integrate":0,"msg":"账户名已经存在！","nickname":"hc2","password":"hc66666","phone":"13349678458","result":"fail"}
[2022-01-27 21:07:06,545] INFO [testRegister testcase_02_register.py 47] 测试结果为Fail
[2022-01-27 21:07:06,578] INFO [testRegister testcase_02_register.py 51] 测试结果为Fail
[2022-01-27 21:07:06,703] INFO [TestCase_Log testcase_log.py 9] 测试用例：Register_para_len
[2022-01-27 21:07:06,703] INFO [TestCase_Log testcase_log.py 10] Url：http://192.168.107.135:80/freshO2O/userAdd.action
[2022-01-27 21:07:06,703] INFO [TestCase_Log testcase_log.py 11] 请求参数：{"account":"hc4","password":"hc66666","phone":"158735667527356675273566752","addr":"深圳市南山区沙河街道"}
[2022-01-27 21:07:06,703] INFO [TestCase_Log testcase_log.py 12] 期望结果：{"result":"fail"}
[2022-01-27 21:07:06,704] INFO [TestCase_Log testcase_log.py 13] 实际结果：{"account":"hc4","addr":"深圳市南山区沙河街道","birthday":null,"email":null,"id":0,"integrate":0,"msg":"非法的电话号码！","nickname":"hc2","password":"hc66666","phone":"158735667527356675273566752","result":"fail"}
[2022-01-27 21:07:06,705] INFO [testRegister testcase_02_register.py 44] 测试结果为Pass
[2022-01-27 21:07:06,850] INFO [TestCase_Log testcase_log.py 9] 测试用例：Register_bypass_ui
[2022-01-27 21:07:06,850] INFO [TestCase_Log testcase_log.py 10] Url：http://192.168.107.135:80/freshO2O/userAdd.action
[2022-01-27 21:07:06,850] INFO [TestCase_Log testcase_log.py 11] 请求参数：{"account":"hc5","password":"hc66666","phone":"-15873566752","addr":"深圳市南山区沙河街道"}
[2022-01-27 21:07:06,851] INFO [TestCase_Log testcase_log.py 12] 期望结果：{"result":"fail"}
[2022-01-27 21:07:06,851] INFO [TestCase_Log testcase_log.py 13] 实际结果：{"account":"hc5","addr":"深圳市南山区沙河街道","birthday":null,"email":null,"id":0,"integrate":0,"msg":"非法的电话号码！","nickname":"hc2","password":"hc66666","phone":"-15873566752","result":"fail"}
[2022-01-27 21:07:06,853] INFO [testRegister testcase_02_register.py 44] 测试结果为Pass
[2022-01-27 21:07:07,049] INFO [TestCase_Log testcase_log.py 9] 测试用例：Register_bypass_auth
[2022-01-27 21:07:07,050] INFO [TestCase_Log testcase_log.py 10] Url：http://192.168.107.135:80/freshO2O/userAdd.action
[2022-01-27 21:07:07,050] INFO [TestCase_Log testcase_log.py 11] 请求参数：{"account":"hc3","password":"admin","addr":"深圳市南山区沙河街道"}
[2022-01-27 21:07:07,050] INFO [TestCase_Log testcase_log.py 12] 期望结果：{"result":"fail"}
[2022-01-27 21:07:07,050] INFO [TestCase_Log testcase_log.py 13] 实际结果：{"account":"hc3","addr":"深圳市南山区沙河街道","birthday":null,"email":null,"id":0,"integrate":0,"msg":"密码至少需要6位字符！","nickname":"hc2","password":"admin","phone":"-15873566752","result":"fail"}
[2022-01-27 21:07:07,052] INFO [testRegister testcase_02_register.py 44] 测试结果为Pass
[2022-01-27 21:07:07,178] INFO [TestCase_Log testcase_log.py 9] 测试用例：Register_business_logic
[2022-01-27 21:07:07,178] INFO [TestCase_Log testcase_log.py 10] Url：http://192.168.107.135:80/freshO2O/userAdd.action
[2022-01-27 21:07:07,179] INFO [TestCase_Log testcase_log.py 11] 请求参数：{"account":"hc6","password":"hc66666","phone":"15873566752","addr":"深圳市南山区沙河街道","phone":"15873566752"}
[2022-01-27 21:07:07,179] INFO [TestCase_Log testcase_log.py 12] 期望结果：{"result":"fail"}
[2022-01-27 21:07:07,179] INFO [TestCase_Log testcase_log.py 13] 实际结果：{"account":"hc6","addr":"深圳市南山区沙河街道","birthday":null,"email":null,"id":0,"integrate":0,"msg":"非法的电话号码！","nickname":"hc2","password":"hc66666","phone":"15873566752","result":"fail"}
[2022-01-27 21:07:07,180] INFO [testRegister testcase_02_register.py 44] 测试结果为Pass
[2022-01-27 21:07:07,234] INFO [tearDownClass testcase_02_register.py 65] Register接口用例页结束
[2022-01-27 21:07:07,234] INFO [setUpClass testcase_03_queryReceiveAddr.py 14] queryReceiveAddr接口测试页开始
[2022-01-27 21:07:07,356] INFO [TestCase_Log testcase_log.py 9] 测试用例：queryReceiveAddr_para_nomal
[2022-01-27 21:07:07,356] INFO [TestCase_Log testcase_log.py 10] Url：http://192.168.107.135:80/freshO2O/receiveaddrSelect.action
[2022-01-27 21:07:07,356] INFO [TestCase_Log testcase_log.py 11] 请求参数：{"username":"admin"}
[2022-01-27 21:07:07,356] INFO [TestCase_Log testcase_log.py 12] 期望结果：{"result":"ok"}
[2022-01-27 21:07:07,357] INFO [TestCase_Log testcase_log.py 13] 实际结果：{"gotoPage":0,"list":[{"account":"admin","address":"深圳市宝安区中南花园","defaultaddr":"深圳市宝安区中南花园","id":1,"phone":"18923680916","username":"amin"}],"msg":"","pageCount":5000,"pageIndex":1,"result":"ok","totalCount":115,"totalPage":1,"username":"admin"}
[2022-01-27 21:07:07,357] INFO [testQueryReceiveAddr testcase_03_queryReceiveAddr.py 27] 测试结果为Pass
[2022-01-27 21:07:07,483] INFO [TestCase_Log testcase_log.py 9] 测试用例：queryReceiveAddr_para_mix
[2022-01-27 21:07:07,483] INFO [TestCase_Log testcase_log.py 10] Url：http://192.168.107.135:80/freshO2O/receiveaddrSelect.action
[2022-01-27 21:07:07,483] INFO [TestCase_Log testcase_log.py 11] 请求参数：{"username":"admin","msg":"查询到0条记录！"}
[2022-01-27 21:07:07,483] INFO [TestCase_Log testcase_log.py 12] 期望结果：{"result":"fail"}
[2022-01-27 21:07:07,484] INFO [TestCase_Log testcase_log.py 13] 实际结果：{"gotoPage":0,"list":[{"account":"admin","address":"深圳市宝安区中南花园","defaultaddr":"深圳市宝安区中南花园","id":1,"phone":"18923680916","username":"amin"}],"msg":"","pageCount":5000,"pageIndex":1,"result":"ok","totalCount":115,"totalPage":1,"username":"admin"}
[2022-01-27 21:07:07,484] INFO [testQueryReceiveAddr testcase_03_queryReceiveAddr.py 30] 测试结果为Fail,具体原因是：'ok' != 'fail'
- ok
+ fail
 : 断言失败
[2022-01-27 21:07:07,605] INFO [TestCase_Log testcase_log.py 9] 测试用例：queryReceiveAddr_para_type
[2022-01-27 21:07:07,606] INFO [TestCase_Log testcase_log.py 10] Url：http://192.168.107.135:80/freshO2O/receiveaddrSelect.action
[2022-01-27 21:07:07,606] INFO [TestCase_Log testcase_log.py 11] 请求参数：{"username":66}
[2022-01-27 21:07:07,606] INFO [TestCase_Log testcase_log.py 12] 期望结果：{"result":"fail"}
[2022-01-27 21:07:07,606] INFO [TestCase_Log testcase_log.py 13] 实际结果：{"gotoPage":0,"list":[],"msg":"查询到0条记录！","pageCount":5000,"pageIndex":1,"result":"fail","totalCount":115,"totalPage":1,"username":"66"}
[2022-01-27 21:07:07,607] INFO [testQueryReceiveAddr testcase_03_queryReceiveAddr.py 27] 测试结果为Pass
[2022-01-27 21:07:07,719] INFO [TestCase_Log testcase_log.py 9] 测试用例：queryReceiveAddr_para_len
[2022-01-27 21:07:07,719] INFO [TestCase_Log testcase_log.py 10] Url：http://192.168.107.135:80/freshO2O/receiveaddrSelect.action
[2022-01-27 21:07:07,719] INFO [TestCase_Log testcase_log.py 11] 请求参数：{"username":"adminadminadminadminadminadminadmin"}
[2022-01-27 21:07:07,719] INFO [TestCase_Log testcase_log.py 12] 期望结果：{"result":"fail"}
[2022-01-27 21:07:07,719] INFO [TestCase_Log testcase_log.py 13] 实际结果：{"gotoPage":0,"list":[],"msg":"查询到0条记录！","pageCount":5000,"pageIndex":1,"result":"fail","totalCount":115,"totalPage":1,"username":"adminadminadminadminadminadminadmin"}
[2022-01-27 21:07:07,720] INFO [testQueryReceiveAddr testcase_03_queryReceiveAddr.py 27] 测试结果为Pass
[2022-01-27 21:07:07,821] INFO [TestCase_Log testcase_log.py 9] 测试用例：queryReceiveAddr_business_logic
[2022-01-27 21:07:07,821] INFO [TestCase_Log testcase_log.py 10] Url：http://192.168.107.135:80/freshO2O/receiveaddrSelect.action
[2022-01-27 21:07:07,822] INFO [TestCase_Log testcase_log.py 11] 请求参数：{"username":"admin","username":"admin"}
[2022-01-27 21:07:07,822] INFO [TestCase_Log testcase_log.py 12] 期望结果：{"result":"fail"}
[2022-01-27 21:07:07,822] INFO [TestCase_Log testcase_log.py 13] 实际结果：{"gotoPage":0,"list":[{"account":"admin","address":"深圳市宝安区中南花园","defaultaddr":"深圳市宝安区中南花园","id":1,"phone":"18923680916","username":"amin"}],"msg":"","pageCount":5000,"pageIndex":1,"result":"ok","totalCount":115,"totalPage":1,"username":"admin"}
[2022-01-27 21:07:07,822] INFO [testQueryReceiveAddr testcase_03_queryReceiveAddr.py 30] 测试结果为Fail,具体原因是：'ok' != 'fail'
- ok
+ fail
 : 断言失败
[2022-01-27 21:07:07,881] INFO [tearDownClass testcase_03_queryReceiveAddr.py 38] queryReceiveAddr接口测试页结束
[2022-01-27 21:07:07,944] INFO [<module> run_all.py 18] =============测试结束=============
