[2022-01-18 22:21:06] INFO [<module> run_all.py 8] =============测试开始=============
[2022-01-18 22:21:06] INFO [setUpClass testcase_01_login.py 13] Login接口用例页开始
[2022-01-18 22:21:06] DEBUG [_new_conn connectionpool.py 221] Starting new HTTP connection (1): 192.168.107.135:80
[2022-01-18 22:21:06] DEBUG [_make_request connectionpool.py 428] http://192.168.107.135:80 "GET /freshO2O/login.action?account=admin&password=admin HTTP/1.1" 200 91
[2022-01-18 22:21:06] INFO [TestCase_Log testcase_log.py 7] 测试用例：Login_para_nomal
[2022-01-18 22:21:06] INFO [TestCase_Log testcase_log.py 8] Url：http://192.168.107.135:80/freshO2O/login.action
[2022-01-18 22:21:06] INFO [TestCase_Log testcase_log.py 9] 请求参数：{"account":"admin","password":"admin"}
[2022-01-18 22:21:06] INFO [TestCase_Log testcase_log.py 10] 期望结果：{"result": "ok"}
[2022-01-18 22:21:06] INFO [TestCase_Log testcase_log.py 11] 实际结果：{"account":"admin","addr":null,"msg":"账户名不存在","password":"admin","result":"ok"}
[2022-01-18 22:21:06] INFO [testLogin testcase_01_login.py 22] 测试结果为Pass
[2022-01-18 22:21:06] DEBUG [_new_conn connectionpool.py 221] Starting new HTTP connection (1): 192.168.107.135:80
[2022-01-18 22:21:06] DEBUG [_make_request connectionpool.py 428] http://192.168.107.135:80 "GET /freshO2O/login.action?account=admin&password=admin&result=error HTTP/1.1" 200 91
[2022-01-18 22:21:06] INFO [TestCase_Log testcase_log.py 7] 测试用例：Login_para_mix
[2022-01-18 22:21:06] INFO [TestCase_Log testcase_log.py 8] Url：http://192.168.107.135:80/freshO2O/login.action
[2022-01-18 22:21:06] INFO [TestCase_Log testcase_log.py 9] 请求参数：{"account":"admin","password":"admin","result":"error"}
[2022-01-18 22:21:06] INFO [TestCase_Log testcase_log.py 10] 期望结果：{"result": "error"}
[2022-01-18 22:21:06] INFO [TestCase_Log testcase_log.py 11] 实际结果：{"account":"admin","addr":null,"msg":"账户名不存在","password":"admin","result":"ok"}
[2022-01-18 22:21:06] INFO [testLogin testcase_01_login.py 25] 测试结果为Fail,具体原因是：'ok' != 'error'
- ok
+ error
 : 断言失败
[2022-01-18 22:21:06] DEBUG [_new_conn connectionpool.py 221] Starting new HTTP connection (1): 192.168.107.135:80
[2022-01-18 22:21:06] DEBUG [_make_request connectionpool.py 428] http://192.168.107.135:80 "GET /freshO2O/login.action?account=admin&password=123456 HTTP/1.1" 200 92
[2022-01-18 22:21:06] INFO [TestCase_Log testcase_log.py 7] 测试用例：Login_para_type
[2022-01-18 22:21:06] INFO [TestCase_Log testcase_log.py 8] Url：http://192.168.107.135:80/freshO2O/login.action
[2022-01-18 22:21:06] INFO [TestCase_Log testcase_log.py 9] 请求参数：{"account":"admin","password":123456}
[2022-01-18 22:21:06] INFO [TestCase_Log testcase_log.py 10] 期望结果：{"result": "error"}
[2022-01-18 22:21:06] INFO [TestCase_Log testcase_log.py 11] 实际结果：{"account":"admin","addr":null,"msg":"密码不正确","password":"123456","result":"error"}
[2022-01-18 22:21:06] INFO [testLogin testcase_01_login.py 22] 测试结果为Pass
[2022-01-18 22:21:06] DEBUG [_new_conn connectionpool.py 221] Starting new HTTP connection (1): 192.168.107.135:80
[2022-01-18 22:21:06] DEBUG [_make_request connectionpool.py 428] http://192.168.107.135:80 "GET /freshO2O/login.action?account=adminadminadminadmin&password=admin HTTP/1.1" 200 109
[2022-01-18 22:21:06] INFO [TestCase_Log testcase_log.py 7] 测试用例：Login_para_len
[2022-01-18 22:21:06] INFO [TestCase_Log testcase_log.py 8] Url：http://192.168.107.135:80/freshO2O/login.action
[2022-01-18 22:21:06] INFO [TestCase_Log testcase_log.py 9] 请求参数：{"account":"adminadminadminadmin","password":"admin"}
[2022-01-18 22:21:06] INFO [TestCase_Log testcase_log.py 10] 期望结果：{"result": "error"}
[2022-01-18 22:21:06] INFO [TestCase_Log testcase_log.py 11] 实际结果：{"account":"adminadminadminadmin","addr":null,"msg":"账户名不存在","password":"admin","result":"error"}
[2022-01-18 22:21:06] INFO [testLogin testcase_01_login.py 22] 测试结果为Pass
[2022-01-18 22:21:06] DEBUG [_new_conn connectionpool.py 221] Starting new HTTP connection (1): 192.168.107.135:80
[2022-01-18 22:21:06] DEBUG [_make_request connectionpool.py 428] http://192.168.107.135:80 "GET /freshO2O/login.action?account=admin HTTP/1.1" 200 91
[2022-01-18 22:21:06] INFO [TestCase_Log testcase_log.py 7] 测试用例：Login_para_opposite
[2022-01-18 22:21:06] INFO [TestCase_Log testcase_log.py 8] Url：http://192.168.107.135:80/freshO2O/login.action
[2022-01-18 22:21:06] INFO [TestCase_Log testcase_log.py 9] 请求参数：{"account":"admin"}
[2022-01-18 22:21:06] INFO [TestCase_Log testcase_log.py 10] 期望结果：{"result": "error"}
[2022-01-18 22:21:06] INFO [TestCase_Log testcase_log.py 11] 实际结果：{"account":"admin","addr":null,"msg":"账户名不存在","password":"admin","result":"ok"}
[2022-01-18 22:21:06] INFO [testLogin testcase_01_login.py 25] 测试结果为Fail,具体原因是：'ok' != 'error'
- ok
+ error
 : 断言失败
[2022-01-18 22:21:06] DEBUG [_new_conn connectionpool.py 221] Starting new HTTP connection (1): 192.168.107.135:80
[2022-01-18 22:21:06] DEBUG [_make_request connectionpool.py 428] http://192.168.107.135:80 "GET /freshO2O/login.action?password=admin HTTP/1.1" 200 91
[2022-01-18 22:21:06] INFO [TestCase_Log testcase_log.py 7] 测试用例：Login_bypass_ui
[2022-01-18 22:21:06] INFO [TestCase_Log testcase_log.py 8] Url：http://192.168.107.135:80/freshO2O/login.action
[2022-01-18 22:21:06] INFO [TestCase_Log testcase_log.py 9] 请求参数：{"password":"admin"}
[2022-01-18 22:21:06] INFO [TestCase_Log testcase_log.py 10] 期望结果：{"result": "error"}
[2022-01-18 22:21:06] INFO [TestCase_Log testcase_log.py 11] 实际结果：{"account":"admin","addr":null,"msg":"账户名不存在","password":"admin","result":"ok"}
[2022-01-18 22:21:06] INFO [testLogin testcase_01_login.py 25] 测试结果为Fail,具体原因是：'ok' != 'error'
- ok
+ error
 : 断言失败
[2022-01-18 22:21:06] DEBUG [_new_conn connectionpool.py 221] Starting new HTTP connection (1): 192.168.107.135:80
[2022-01-18 22:21:06] DEBUG [_make_request connectionpool.py 428] http://192.168.107.135:80 "GET /freshO2O/login.action?account=hc&password=admin HTTP/1.1" 200 91
[2022-01-18 22:21:06] INFO [TestCase_Log testcase_log.py 7] 测试用例：Login_bypass_auth
[2022-01-18 22:21:06] INFO [TestCase_Log testcase_log.py 8] Url：http://192.168.107.135:80/freshO2O/login.action
[2022-01-18 22:21:06] INFO [TestCase_Log testcase_log.py 9] 请求参数：{"account":"hc","password":"admin"}
[2022-01-18 22:21:06] INFO [TestCase_Log testcase_log.py 10] 期望结果：{"result": "error"}
[2022-01-18 22:21:06] INFO [TestCase_Log testcase_log.py 11] 实际结果：{"account":"hc","addr":null,"msg":"账户名不存在","password":"admin","result":"error"}
[2022-01-18 22:21:06] INFO [testLogin testcase_01_login.py 22] 测试结果为Pass
[2022-01-18 22:21:06] DEBUG [_new_conn connectionpool.py 221] Starting new HTTP connection (1): 192.168.107.135:80
[2022-01-18 22:21:06] DEBUG [_make_request connectionpool.py 428] http://192.168.107.135:80 "GET /freshO2O/login.action?account=lisi&password=lisi HTTP/1.1" 200 105
[2022-01-18 22:21:06] INFO [TestCase_Log testcase_log.py 7] 测试用例：Login_business_logic
[2022-01-18 22:21:06] INFO [TestCase_Log testcase_log.py 8] Url：http://192.168.107.135:80/freshO2O/login.action
[2022-01-18 22:21:06] INFO [TestCase_Log testcase_log.py 9] 请求参数：{"account":"admin","password":"admin","account":"lisi","password":"lisi"}
[2022-01-18 22:21:06] INFO [TestCase_Log testcase_log.py 10] 期望结果：{"result": "error"}
[2022-01-18 22:21:06] INFO [TestCase_Log testcase_log.py 11] 实际结果：{"account":"lisi","addr":"广州市黄埔区","msg":"账户名不存在","password":"lisi","result":"ok"}
[2022-01-18 22:21:06] INFO [testLogin testcase_01_login.py 25] 测试结果为Fail,具体原因是：'ok' != 'error'
- ok
+ error
 : 断言失败
[2022-01-18 22:21:06] INFO [tearDownClass testcase_01_login.py 33] Login接口用例页结束
[2022-01-18 22:21:06] INFO [setUpClass testcase_02_register.py 12] Register接口用例页开始
[2022-01-18 22:21:07] DEBUG [_new_conn connectionpool.py 221] Starting new HTTP connection (1): 192.168.107.135:80
[2022-01-18 22:21:07] DEBUG [_make_request connectionpool.py 428] http://192.168.107.135:80 "POST /freshO2O/userAdd.action HTTP/1.1" 200 189
[2022-01-18 22:21:07] INFO [TestCase_Log testcase_log.py 7] 测试用例：Register_para_nomal
[2022-01-18 22:21:07] INFO [TestCase_Log testcase_log.py 8] Url：http://192.168.107.135:80/freshO2O/userAdd.action
[2022-01-18 22:21:07] INFO [TestCase_Log testcase_log.py 9] 请求参数：{"account":"hc","password":"hc66666","phone":"13349678458","addr":"深圳市南山区沙河街道"}
[2022-01-18 22:21:07] INFO [TestCase_Log testcase_log.py 10] 期望结果：{"result":"ok"}
[2022-01-18 22:21:07] INFO [TestCase_Log testcase_log.py 11] 实际结果：{"account":"hc","addr":"深圳市南山区沙河街道","birthday":null,"email":null,"id":0,"integrate":0,"msg":"","nickname":"hc2","password":"hc66666","phone":"13349678458","result":"ok"}
[2022-01-18 22:21:07] INFO [testRegister testcase_02_register.py 30] 测试结果为Pass
[2022-01-18 22:21:07] DEBUG [_new_conn connectionpool.py 221] Starting new HTTP connection (1): 192.168.107.135:80
[2022-01-18 22:21:07] DEBUG [_make_request connectionpool.py 428] http://192.168.107.135:80 "POST /freshO2O/userAdd.action HTTP/1.1" 200 190
[2022-01-18 22:21:07] INFO [TestCase_Log testcase_log.py 7] 测试用例：Register_para_mix
[2022-01-18 22:21:07] INFO [TestCase_Log testcase_log.py 8] Url：http://192.168.107.135:80/freshO2O/userAdd.action
[2022-01-18 22:21:07] INFO [TestCase_Log testcase_log.py 9] 请求参数：{"account":"hc2","password":"hc66666","nickname":"hc2","addr":"深圳市南山区沙河街道"}
[2022-01-18 22:21:07] INFO [TestCase_Log testcase_log.py 10] 期望结果：{"result":"fail"}
[2022-01-18 22:21:07] INFO [TestCase_Log testcase_log.py 11] 实际结果：{"account":"hc2","addr":"深圳市南山区沙河街道","birthday":null,"email":null,"id":0,"integrate":0,"msg":"","nickname":"hc2","password":"hc66666","phone":"13349678458","result":"ok"}
[2022-01-18 22:21:07] INFO [testRegister testcase_02_register.py 34] 测试结果为Fail
[2022-01-18 22:21:07] INFO [testRegister testcase_02_register.py 41] 本应该注册失败的，但却成功了
[2022-01-18 22:21:07] DEBUG [_new_conn connectionpool.py 221] Starting new HTTP connection (1): 192.168.107.135:80
[2022-01-18 22:21:07] DEBUG [_make_request connectionpool.py 428] http://192.168.107.135:80 "POST /freshO2O/userAdd.action HTTP/1.1" 200 232
[2022-01-18 22:21:07] INFO [TestCase_Log testcase_log.py 7] 测试用例：Register_para_len
[2022-01-18 22:21:07] INFO [TestCase_Log testcase_log.py 8] Url：http://192.168.107.135:80/freshO2O/userAdd.action
[2022-01-18 22:21:07] INFO [TestCase_Log testcase_log.py 9] 请求参数：{"account":"hc4","password":"hc66666","phone":"158735667527356675273566752","addr":"深圳市南山区沙河街道"}
[2022-01-18 22:21:07] INFO [TestCase_Log testcase_log.py 10] 期望结果：{"result":"fail"}
[2022-01-18 22:21:07] INFO [TestCase_Log testcase_log.py 11] 实际结果：{"account":"hc4","addr":"深圳市南山区沙河街道","birthday":null,"email":null,"id":0,"integrate":0,"msg":"非法的电话号码！","nickname":"hc2","password":"hc66666","phone":"158735667527356675273566752","result":"fail"}
[2022-01-18 22:21:07] INFO [testRegister testcase_02_register.py 34] 测试结果为Fail
[2022-01-18 22:21:08] DEBUG [_new_conn connectionpool.py 221] Starting new HTTP connection (1): 192.168.107.135:80
[2022-01-18 22:21:08] DEBUG [_make_request connectionpool.py 428] http://192.168.107.135:80 "POST /freshO2O/userAdd.action HTTP/1.1" 200 217
[2022-01-18 22:21:08] INFO [TestCase_Log testcase_log.py 7] 测试用例：Register_bypass_ui
[2022-01-18 22:21:08] INFO [TestCase_Log testcase_log.py 8] Url：http://192.168.107.135:80/freshO2O/userAdd.action
[2022-01-18 22:21:08] INFO [TestCase_Log testcase_log.py 9] 请求参数：{"account":"hc5","password":"hc66666","phone":"-15873566752","addr":"深圳市南山区沙河街道"}
[2022-01-18 22:21:08] INFO [TestCase_Log testcase_log.py 10] 期望结果：{"result":"fail"}
[2022-01-18 22:21:08] INFO [TestCase_Log testcase_log.py 11] 实际结果：{"account":"hc5","addr":"深圳市南山区沙河街道","birthday":null,"email":null,"id":0,"integrate":0,"msg":"非法的电话号码！","nickname":"hc2","password":"hc66666","phone":"-15873566752","result":"fail"}
[2022-01-18 22:21:08] INFO [testRegister testcase_02_register.py 34] 测试结果为Fail
[2022-01-18 22:21:08] DEBUG [_new_conn connectionpool.py 221] Starting new HTTP connection (1): 192.168.107.135:80
[2022-01-18 22:21:08] DEBUG [_make_request connectionpool.py 428] http://192.168.107.135:80 "POST /freshO2O/userAdd.action HTTP/1.1" 200 222
[2022-01-18 22:21:08] INFO [TestCase_Log testcase_log.py 7] 测试用例：Register_bypass_auth
[2022-01-18 22:21:08] INFO [TestCase_Log testcase_log.py 8] Url：http://192.168.107.135:80/freshO2O/userAdd.action
[2022-01-18 22:21:08] INFO [TestCase_Log testcase_log.py 9] 请求参数：{"account":"hc3","password":"admin","addr":"深圳市南山区沙河街道"}
[2022-01-18 22:21:08] INFO [TestCase_Log testcase_log.py 10] 期望结果：{"result":"fail"}
[2022-01-18 22:21:08] INFO [TestCase_Log testcase_log.py 11] 实际结果：{"account":"hc3","addr":"深圳市南山区沙河街道","birthday":null,"email":null,"id":0,"integrate":0,"msg":"密码至少需要6位字符！","nickname":"hc2","password":"admin","phone":"-15873566752","result":"fail"}
[2022-01-18 22:21:08] INFO [testRegister testcase_02_register.py 34] 测试结果为Fail
[2022-01-18 22:21:08] DEBUG [_new_conn connectionpool.py 221] Starting new HTTP connection (1): 192.168.107.135:80
[2022-01-18 22:21:08] DEBUG [_make_request connectionpool.py 428] http://192.168.107.135:80 "POST /freshO2O/userAdd.action HTTP/1.1" 200 216
[2022-01-18 22:21:08] INFO [TestCase_Log testcase_log.py 7] 测试用例：Register_business_logic
[2022-01-18 22:21:08] INFO [TestCase_Log testcase_log.py 8] Url：http://192.168.107.135:80/freshO2O/userAdd.action
[2022-01-18 22:21:08] INFO [TestCase_Log testcase_log.py 9] 请求参数：{"account":"hc6","password":"hc66666","phone":"15873566752","addr":"深圳市南山区沙河街道","phone":"15873566752"}
[2022-01-18 22:21:08] INFO [TestCase_Log testcase_log.py 10] 期望结果：{"result":"fail"}
[2022-01-18 22:21:08] INFO [TestCase_Log testcase_log.py 11] 实际结果：{"account":"hc6","addr":"深圳市南山区沙河街道","birthday":null,"email":null,"id":0,"integrate":0,"msg":"非法的电话号码！","nickname":"hc2","password":"hc66666","phone":"15873566752","result":"fail"}
[2022-01-18 22:21:08] INFO [testRegister testcase_02_register.py 34] 测试结果为Fail
[2022-01-18 22:21:08] INFO [tearDownClass testcase_02_register.py 47] Register接口用例页结束
[2022-01-18 22:21:08] INFO [setUpClass testcase_03_queryReceiveAddr.py 12] queryReceiveAddr接口测试页开始
[2022-01-18 22:21:08] DEBUG [_new_conn connectionpool.py 221] Starting new HTTP connection (1): 192.168.107.135:80
[2022-01-18 22:21:08] DEBUG [_make_request connectionpool.py 428] http://192.168.107.135:80 "POST /freshO2O/receiveaddrSelect.action HTTP/1.1" 200 283
[2022-01-18 22:21:08] INFO [TestCase_Log testcase_log.py 7] 测试用例：queryReceiveAddr_para_nomal
[2022-01-18 22:21:08] INFO [TestCase_Log testcase_log.py 8] Url：http://192.168.107.135:80/freshO2O/receiveaddrSelect.action
[2022-01-18 22:21:08] INFO [TestCase_Log testcase_log.py 9] 请求参数：{"username":"admin"}
[2022-01-18 22:21:08] INFO [TestCase_Log testcase_log.py 10] 期望结果：{"result":"ok"}
[2022-01-18 22:21:08] INFO [TestCase_Log testcase_log.py 11] 实际结果：{"gotoPage":0,"list":[{"account":"admin","address":"深圳市宝安区中南花园","defaultaddr":"深圳市宝安区中南花园","id":1,"phone":"18923680916","username":"amin"}],"msg":"","pageCount":5000,"pageIndex":1,"result":"ok","totalCount":97,"totalPage":1,"username":"admin"}
[2022-01-18 22:21:08] INFO [testQueryReceiveAddr testcase_03_queryReceiveAddr.py 25] 测试结果为Pass
[2022-01-18 22:21:08] DEBUG [_new_conn connectionpool.py 221] Starting new HTTP connection (1): 192.168.107.135:80
[2022-01-18 22:21:08] DEBUG [_make_request connectionpool.py 428] http://192.168.107.135:80 "POST /freshO2O/receiveaddrSelect.action HTTP/1.1" 200 283
[2022-01-18 22:21:08] INFO [TestCase_Log testcase_log.py 7] 测试用例：queryReceiveAddr_para_mix
[2022-01-18 22:21:08] INFO [TestCase_Log testcase_log.py 8] Url：http://192.168.107.135:80/freshO2O/receiveaddrSelect.action
[2022-01-18 22:21:08] INFO [TestCase_Log testcase_log.py 9] 请求参数：{"username":"admin","msg":"查询到0条记录！"}
[2022-01-18 22:21:08] INFO [TestCase_Log testcase_log.py 10] 期望结果：{"result":"fail"}
[2022-01-18 22:21:08] INFO [TestCase_Log testcase_log.py 11] 实际结果：{"gotoPage":0,"list":[{"account":"admin","address":"深圳市宝安区中南花园","defaultaddr":"深圳市宝安区中南花园","id":1,"phone":"18923680916","username":"amin"}],"msg":"","pageCount":5000,"pageIndex":1,"result":"ok","totalCount":97,"totalPage":1,"username":"admin"}
[2022-01-18 22:21:08] INFO [testQueryReceiveAddr testcase_03_queryReceiveAddr.py 28] 测试结果为Fail,具体原因是：'ok' != 'fail'
- ok
+ fail
 : 断言失败
[2022-01-18 22:21:09] DEBUG [_new_conn connectionpool.py 221] Starting new HTTP connection (1): 192.168.107.135:80
[2022-01-18 22:21:09] DEBUG [_make_request connectionpool.py 428] http://192.168.107.135:80 "POST /freshO2O/receiveaddrSelect.action HTTP/1.1" 200 148
[2022-01-18 22:21:09] INFO [TestCase_Log testcase_log.py 7] 测试用例：queryReceiveAddr_para_type
[2022-01-18 22:21:09] INFO [TestCase_Log testcase_log.py 8] Url：http://192.168.107.135:80/freshO2O/receiveaddrSelect.action
[2022-01-18 22:21:09] INFO [TestCase_Log testcase_log.py 9] 请求参数：{"username":66}
[2022-01-18 22:21:09] INFO [TestCase_Log testcase_log.py 10] 期望结果：{"result":"fail"}
[2022-01-18 22:21:09] INFO [TestCase_Log testcase_log.py 11] 实际结果：{"gotoPage":0,"list":[],"msg":"查询到0条记录！","pageCount":5000,"pageIndex":1,"result":"fail","totalCount":97,"totalPage":1,"username":"66"}
[2022-01-18 22:21:09] INFO [testQueryReceiveAddr testcase_03_queryReceiveAddr.py 25] 测试结果为Pass
[2022-01-18 22:21:09] DEBUG [_new_conn connectionpool.py 221] Starting new HTTP connection (1): 192.168.107.135:80
[2022-01-18 22:21:09] DEBUG [_make_request connectionpool.py 428] http://192.168.107.135:80 "POST /freshO2O/receiveaddrSelect.action HTTP/1.1" 200 181
[2022-01-18 22:21:09] INFO [TestCase_Log testcase_log.py 7] 测试用例：queryReceiveAddr_para_len
[2022-01-18 22:21:09] INFO [TestCase_Log testcase_log.py 8] Url：http://192.168.107.135:80/freshO2O/receiveaddrSelect.action
[2022-01-18 22:21:09] INFO [TestCase_Log testcase_log.py 9] 请求参数：{"username":"adminadminadminadminadminadminadmin"}
[2022-01-18 22:21:09] INFO [TestCase_Log testcase_log.py 10] 期望结果：{"result":"fail"}
[2022-01-18 22:21:09] INFO [TestCase_Log testcase_log.py 11] 实际结果：{"gotoPage":0,"list":[],"msg":"查询到0条记录！","pageCount":5000,"pageIndex":1,"result":"fail","totalCount":97,"totalPage":1,"username":"adminadminadminadminadminadminadmin"}
[2022-01-18 22:21:09] INFO [testQueryReceiveAddr testcase_03_queryReceiveAddr.py 25] 测试结果为Pass
[2022-01-18 22:21:09] DEBUG [_new_conn connectionpool.py 221] Starting new HTTP connection (1): 192.168.107.135:80
[2022-01-18 22:21:09] DEBUG [_make_request connectionpool.py 428] http://192.168.107.135:80 "POST /freshO2O/receiveaddrSelect.action HTTP/1.1" 200 283
[2022-01-18 22:21:09] INFO [TestCase_Log testcase_log.py 7] 测试用例：queryReceiveAddr_business_logic
[2022-01-18 22:21:09] INFO [TestCase_Log testcase_log.py 8] Url：http://192.168.107.135:80/freshO2O/receiveaddrSelect.action
[2022-01-18 22:21:09] INFO [TestCase_Log testcase_log.py 9] 请求参数：{"username":"admin","username":"admin"}
[2022-01-18 22:21:09] INFO [TestCase_Log testcase_log.py 10] 期望结果：{"result":"fail"}
[2022-01-18 22:21:09] INFO [TestCase_Log testcase_log.py 11] 实际结果：{"gotoPage":0,"list":[{"account":"admin","address":"深圳市宝安区中南花园","defaultaddr":"深圳市宝安区中南花园","id":1,"phone":"18923680916","username":"amin"}],"msg":"","pageCount":5000,"pageIndex":1,"result":"ok","totalCount":97,"totalPage":1,"username":"admin"}
[2022-01-18 22:21:09] INFO [testQueryReceiveAddr testcase_03_queryReceiveAddr.py 28] 测试结果为Fail,具体原因是：'ok' != 'fail'
- ok
+ fail
 : 断言失败
[2022-01-18 22:21:09] INFO [tearDownClass testcase_03_queryReceiveAddr.py 35] queryReceiveAddr接口测试页结束
[2022-01-18 22:21:09] INFO [<module> run_all.py 15] =============测试结束=============
