[2022-01-25 23:01:55,608] INFO [setUpClass testcase_03_queryReceiveAddr.py 14] queryReceiveAddr接口测试页开始
[2022-01-25 23:01:55,648] INFO [testQueryReceiveAddr testcase_03_queryReceiveAddr.py 27] 测试结果为Pass
[2022-01-25 23:01:55,758] INFO [testQueryReceiveAddr testcase_03_queryReceiveAddr.py 30] 测试结果为Fail,具体原因是：'ok' != 'fail'
- ok
+ fail
 : 断言失败
[2022-01-25 23:01:55,829] INFO [testQueryReceiveAddr testcase_03_queryReceiveAddr.py 27] 测试结果为Pass
[2022-01-25 23:01:55,922] INFO [testQueryReceiveAddr testcase_03_queryReceiveAddr.py 27] 测试结果为Pass
[2022-01-25 23:01:56,006] INFO [testQueryReceiveAddr testcase_03_queryReceiveAddr.py 30] 测试结果为Fail,具体原因是：'ok' != 'fail'
- ok
+ fail
 : 断言失败
[2022-01-25 23:01:56,060] INFO [tearDownClass testcase_03_queryReceiveAddr.py 38] queryReceiveAddr接口测试页结束
1-25 23:01:54,738] INFO [testLogin testcase_01_login.py 27] 测试结果为Fail,具体原因是：'ok' != 'error'
- ok
+ error
 : 断言失败
[2022-01-25 23:01:54,790] INFO [tearDownClass testcase_01_login.py 36] Login接口用例页结束
dr":null,"msg":"账户名不存在","password":"admin","result":"ok"}
[2022-01-25 23:01:54,393] INFO [TestCase_Log testcase_log.py 9] 测试用例：Login_para_type
[2022-01-25 23:01:54,393] INFO [TestCase_Log testcase_log.py 10] Url：http://192.168.107.135:80/freshO2O/login.action
[2022-01-25 23:01:54,393] INFO [TestCase_Log testcase_log.py 11] 请求参数：{"account":"admin","password":123456}
[2022-01-25 23:01:54,393] INFO [TestCase_Log testcase_log.py 12] 期望结果：{"result": "error"}
[2022-01-25 23:01:54,393] INFO [TestCase_Log testcase_log.py 13] 实际结果：{"account":"admin","addr":null,"msg":"密码不正确","password":"123456","result":"error"}
[2022-01-25 23:01:54,457] INFO [TestCase_Log testcase_log.py 9] 测试用例：Login_para_len
[2022-01-25 23:01:54,457] INFO [TestCase_Log testcase_log.py 10] Url：http://192.168.107.135:80/freshO2O/login.action
[2022-01-25 23:01:54,457] INFO [TestCase_Log testcase_log.py 11] 请求参数：{"account":"adminadminadminadmin","password":"admin"}
[2022-01-25 23:01:54,457] INFO [TestCase_Log testcase_log.py 12] 期望结果：{"result": "error"}
[2022-01-25 23:01:54,457] INFO [TestCase_Log testcase_log.py 13] 实际结果：{"account":"adminadminadminadmin","addr":null,"msg":"账户名不存在","password":"admin","result":"error"}
[2022-01-25 23:01:54,527] INFO [TestCase_Log testcase_log.py 9] 测试用例：Login_para_opposite
[2022-01-25 23:01:54,527] INFO [TestCase_Log testcase_log.py 10] Url：http://192.168.107.135:80/freshO2O/login.action
[2022-01-25 23:01:54,527] INFO [TestCase_Log testcase_log.py 11] 请求参数：{"account":"admin"}
[2022-01-25 23:01:54,527] INFO [TestCase_Log testcase_log.py 12] 期望结果：{"result": "error"}
[2022-01-25 23:01:54,527] INFO [TestCase_Log testcase_log.py 13] 实际结果：{"account":"admin","addr":null,"msg":"账户名不存在","password":"admin","result":"ok"}
[2022-01-25 23:01:54,604] INFO [TestCase_Log testcase_log.py 9] 测试用例：Login_bypass_ui
[2022-01-25 23:01:54,604] INFO [TestCase_Log testcase_log.py 10] Url：http://192.168.107.135:80/freshO2O/login.action
[2022-01-25 23:01:54,604] INFO [TestCase_Log testcase_log.py 11] 请求参数：{"password":"admin"}
[2022-01-25 23:01:54,604] INFO [TestCase_Log testcase_log.py 12] 期望结果：{"result": "error"}
[2022-01-25 23:01:54,604] INFO [TestCase_Log testcase_log.py 13] 实际结果：{"account":"admin","addr":null,"msg":"账户名不存在","password":"admin","result":"ok"}
[2022-01-25 23:01:54,667] INFO [TestCase_Log testcase_log.py 9] 测试用例：Login_bypass_auth
[2022-01-25 23:01:54,667] INFO [TestCase_Log testcase_log.py 10] Url：http://192.168.107.135:80/freshO2O/login.action
[2022-01-25 23:01:54,667] INFO [TestCase_Log testcase_log.py 11] 请求参数：{"account":"hc","password":"admin"}
[2022-01-25 23:01:54,667] INFO [TestCase_Log testcase_log.py 12] 期望结果：{"result": "error"}
[2022-01-25 23:01:54,668] INFO [TestCase_Log testcase_log.py 13] 实际结果：{"account":"hc","addr":null,"msg":"账户名不存在","password":"admin","result":"error"}
[2022-01-25 23:01:54,737] INFO [TestCase_Log testcase_log.py 9] 测试用例：Login_business_logic
[2022-01-25 23:01:54,738] INFO [TestCase_Log testcase_log.py 10] Url：http://192.168.107.135:80/freshO2O/login.action
[2022-01-25 23:01:54,738] INFO [TestCase_Log testcase_log.py 11] 请求参数：{"account":"admin","password":"admin","account":"lisi","password":"lisi"}
[2022-01-25 23:01:54,738] INFO [TestCase_Log testcase_log.py 12] 期望结果：{"result": "error"}
[2022-01-25 23:01:54,738] INFO [TestCase_Log testcase_log.py 13] 实际结果：{"account":"lisi","addr":"广州市黄埔区","msg":"账户名不存在","password":"lisi","result":"ok"}
[2022-01-25 23:01:54,847] INFO [TestCase_Log testcase_log.py 9] 测试用例：Register_para_nomal
[2022-01-25 23:01:54,848] INFO [TestCase_Log testcase_log.py 10] Url：http://192.168.107.135:80/freshO2O/userAdd.action
[2022-01-25 23:01:54,848] INFO [TestCase_Log testcase_log.py 11] 请求参数：{"account":"hc","password":"hc66666","phone":"13349678458","addr":"深圳市南山区沙河街道"}
[2022-01-25 23:01:54,848] INFO [TestCase_Log testcase_log.py 12] 期望结果：{"result":"ok"}
[2022-01-25 23:01:54,848] INFO [TestCase_Log testcase_log.py 13] 实际结果：{"account":"hc","addr":"深圳市南山区沙河街道","birthday":null,"email":null,"id":0,"integrate":0,"msg":"","nickname":"hc2","password":"hc66666","phone":"13349678458","result":"ok"}
[2022-01-25 23:01:54,977] INFO [TestCase_Log testcase_log.py 9] 测试用例：Register_para_mix
[2022-01-25 23:01:54,978] INFO [TestCase_Log testcase_log.py 10] Url：http://192.168.107.135:80/freshO2O/userAdd.action
[2022-01-25 23:01:54,978] INFO [TestCase_Log testcase_log.py 11] 请求参数：{"account":"hc2","password":"hc66666","nickname":"hc2","addr":"深圳市南山区沙河街道"}
[2022-01-25 23:01:54,978] INFO [TestCase_Log testcase_log.py 12] 期望结果：{"result":"fail"}
[2022-01-25 23:01:54,978] INFO [TestCase_Log testcase_log.py 13] 实际结果：{"account":"hc2","addr":"深圳市南山区沙河街道","birthday":null,"email":null,"id":0,"integrate":0,"msg":"账户名已经存在！","nickname":"hc2","password":"hc66666","phone":"13349678458","result":"fail"}
[2022-01-25 23:01:55,102] INFO [TestCase_Log testcase_log.py 9] 测试用例：Register_para_len
[2022-01-25 23:01:55,102] INFO [TestCase_Log testcase_log.py 10] Url：http://192.168.107.135:80/freshO2O/userAdd.action
[2022-01-25 23:01:55,103] INFO [TestCase_Log testcase_log.py 11] 请求参数：{"account":"hc4","password":"hc66666","phone":"158735667527356675273566752","addr":"深圳市南山区沙河街道"}
[2022-01-25 23:01:55,103] INFO [TestCase_Log testcase_log.py 12] 期望结果：{"result":"fail"}
[2022-01-25 23:01:55,103] INFO [TestCase_Log testcase_log.py 13] 实际结果：{"account":"hc4","addr":"深圳市南山区沙河街道","birthday":null,"email":null,"id":0,"integrate":0,"msg":"非法的电话号码！","nickname":"hc2","password":"hc66666","phone":"158735667527356675273566752","result":"fail"}
[2022-01-25 23:01:55,233] INFO [TestCase_Log testcase_log.py 9] 测试用例：Register_bypass_ui
[2022-01-25 23:01:55,233] INFO [TestCase_Log testcase_log.py 10] Url：http://192.168.107.135:80/freshO2O/userAdd.action
[2022-01-25 23:01:55,233] INFO [TestCase_Log testcase_log.py 11] 请求参数：{"account":"hc5","password":"hc66666","phone":"-15873566752","addr":"深圳市南山区沙河街道"}
[2022-01-25 23:01:55,233] INFO [TestCase_Log testcase_log.py 12] 期望结果：{"result":"fail"}
[2022-01-25 23:01:55,233] INFO [TestCase_Log testcase_log.py 13] 实际结果：{"account":"hc5","addr":"深圳市南山区沙河街道","birthday":null,"email":null,"id":0,"integrate":0,"msg":"非法的电话号码！","nickname":"hc2","password":"hc66666","phone":"-15873566752","result":"fail"}
[2022-01-25 23:01:55,379] INFO [TestCase_Log testcase_log.py 9] 测试用例：Register_bypass_auth
[2022-01-25 23:01:55,379] INFO [TestCase_Log testcase_log.py 10] Url：http://192.168.107.135:80/freshO2O/userAdd.action
[2022-01-25 23:01:55,380] INFO [TestCase_Log testcase_log.py 11] 请求参数：{"account":"hc3","password":"admin","addr":"深圳市南山区沙河街道"}
[2022-01-25 23:01:55,380] INFO [TestCase_Log testcase_log.py 12] 期望结果：{"result":"fail"}
[2022-01-25 23:01:55,380] INFO [TestCase_Log testcase_log.py 13] 实际结果：{"account":"hc3","addr":"深圳市南山区沙河街道","birthday":null,"email":null,"id":0,"integrate":0,"msg":"密码至少需要6位字符！","nickname":"hc2","password":"admin","phone":"-15873566752","result":"fail"}
[2022-01-25 23:01:55,543] INFO [TestCase_Log testcase_log.py 9] 测试用例：Register_business_logic
[2022-01-25 23:01:55,543] INFO [TestCase_Log testcase_log.py 10] Url：http://192.168.107.135:80/freshO2O/userAdd.action
[2022-01-25 23:01:55,543] INFO [TestCase_Log testcase_log.py 11] 请求参数：{"account":"hc6","password":"hc66666","phone":"15873566752","addr":"深圳市南山区沙河街道","phone":"15873566752"}
[2022-01-25 23:01:55,543] INFO [TestCase_Log testcase_log.py 12] 期望结果：{"result":"fail"}
[2022-01-25 23:01:55,543] INFO [TestCase_Log testcase_log.py 13] 实际结果：{"account":"hc6","addr":"深圳市南山区沙河街道","birthday":null,"email":null,"id":0,"integrate":0,"msg":"非法的电话号码！","nickname":"hc2","password":"hc66666","phone":"15873566752","result":"fail"}
[2022-01-25 23:01:55,646] INFO [TestCase_Log testcase_log.py 9] 测试用例：queryReceiveAddr_para_nomal
[2022-01-25 23:01:55,646] INFO [TestCase_Log testcase_log.py 10] Url：http://192.168.107.135:80/freshO2O/receiveaddrSelect.action
[2022-01-25 23:01:55,647] INFO [TestCase_Log testcase_log.py 11] 请求参数：{"username":"admin"}
[2022-01-25 23:01:55,647] INFO [TestCase_Log testcase_log.py 12] 期望结果：{"result":"ok"}
[2022-01-25 23:01:55,647] INFO [TestCase_Log testcase_log.py 13] 实际结果：{"gotoPage":0,"list":[{"account":"admin","address":"深圳市宝安区中南花园","defaultaddr":"深圳市宝安区中南花园","id":1,"phone":"18923680916","username":"amin"}],"msg":"","pageCount":5000,"pageIndex":1,"result":"ok","totalCount":115,"totalPage":1,"username":"admin"}
[2022-01-25 23:01:55,757] INFO [TestCase_Log testcase_log.py 9] 测试用例：queryReceiveAddr_para_mix
[2022-01-25 23:01:55,757] INFO [TestCase_Log testcase_log.py 10] Url：http://192.168.107.135:80/freshO2O/receiveaddrSelect.action
[2022-01-25 23:01:55,758] INFO [TestCase_Log testcase_log.py 11] 请求参数：{"username":"admin","msg":"查询到0条记录！"}
[2022-01-25 23:01:55,758] INFO [TestCase_Log testcase_log.py 12] 期望结果：{"result":"fail"}
[2022-01-25 23:01:55,758] INFO [TestCase_Log testcase_log.py 13] 实际结果：{"gotoPage":0,"list":[{"account":"admin","address":"深圳市宝安区中南花园","defaultaddr":"深圳市宝安区中南花园","id":1,"phone":"18923680916","username":"amin"}],"msg":"","pageCount":5000,"pageIndex":1,"result":"ok","totalCount":115,"totalPage":1,"username":"admin"}
[2022-01-25 23:01:55,828] INFO [TestCase_Log testcase_log.py 9] 测试用例：queryReceiveAddr_para_type
[2022-01-25 23:01:55,828] INFO [TestCase_Log testcase_log.py 10] Url：http://192.168.107.135:80/freshO2O/receiveaddrSelect.action
[2022-01-25 23:01:55,829] INFO [TestCase_Log testcase_log.py 11] 请求参数：{"username":66}
[2022-01-25 23:01:55,829] INFO [TestCase_Log testcase_log.py 12] 期望结果：{"result":"fail"}
[2022-01-25 23:01:55,829] INFO [TestCase_Log testcase_log.py 13] 实际结果：{"gotoPage":0,"list":[],"msg":"查询到0条记录！","pageCount":5000,"pageIndex":1,"result":"fail","totalCount":115,"totalPage":1,"username":"66"}
[2022-01-25 23:01:55,922] INFO [TestCase_Log testcase_log.py 9] 测试用例：queryReceiveAddr_para_len
[2022-01-25 23:01:55,922] INFO [TestCase_Log testcase_log.py 10] Url：http://192.168.107.135:80/freshO2O/receiveaddrSelect.action
[2022-01-25 23:01:55,922] INFO [TestCase_Log testcase_log.py 11] 请求参数：{"username":"adminadminadminadminadminadminadmin"}
[2022-01-25 23:01:55,922] INFO [TestCase_Log testcase_log.py 12] 期望结果：{"result":"fail"}
[2022-01-25 23:01:55,922] INFO [TestCase_Log testcase_log.py 13] 实际结果：{"gotoPage":0,"list":[],"msg":"查询到0条记录！","pageCount":5000,"pageIndex":1,"result":"fail","totalCount":115,"totalPage":1,"username":"adminadminadminadminadminadminadmin"}
[2022-01-25 23:01:56,005] INFO [TestCase_Log testcase_log.py 9] 测试用例：queryReceiveAddr_business_logic
[2022-01-25 23:01:56,005] INFO [TestCase_Log testcase_log.py 10] Url：http://192.168.107.135:80/freshO2O/receiveaddrSelect.action
[2022-01-25 23:01:56,005] INFO [TestCase_Log testcase_log.py 11] 请求参数：{"username":"admin","username":"admin"}
[2022-01-25 23:01:56,005] INFO [TestCase_Log testcase_log.py 12] 期望结果：{"result":"fail"}
[2022-01-25 23:01:56,005] INFO [TestCase_Log testcase_log.py 13] 实际结果：{"gotoPage":0,"list":[{"account":"admin","address":"深圳市宝安区中南花园","defaultaddr":"深圳市宝安区中南花园","id":1,"phone":"18923680916","username":"amin"}],"msg":"","pageCount":5000,"pageIndex":1,"result":"ok","totalCount":115,"totalPage":1,"username":"admin"}
