[2022-02-12 23:24:40,956] INFO [setUpClass testcase_07_selectOrder.py 14] selectOrder接口用例页开始
[2022-02-12 23:24:42,288] INFO [TestCase_Log testcase_log.py 9] 测试用例：selectOrder_para_nomal
[2022-02-12 23:24:42,288] INFO [TestCase_Log testcase_log.py 10] Url：http://192.168.107.135:80/freshO2O/indentSelect.action
[2022-02-12 23:24:42,288] INFO [TestCase_Log testcase_log.py 11] 请求参数：{"id":"1","gotoPage":"0"}
[2022-02-12 23:24:42,288] INFO [TestCase_Log testcase_log.py 12] 期望结果：{"result":"ok"}
[2022-02-12 23:24:42,289] INFO [TestCase_Log testcase_log.py 13] 实际结果：{"account":null,"gotoPage":0,"id":0,"list":[{"GAmount":30.0,"GId":10,"GName":"大米","GNum":10,"GPrice":3.0,"OAddr":"广州市天河区","OState":"已发货","OTime":"2016-03-20T00:00:00","account":"zhangsan","id":1}],"msg":"","pageCount":12,"pageIndex":1,"result":"ok","totalCount":3,"totalPage":1}
[2022-02-12 23:24:42,289] INFO [testselectOrder testcase_07_selectOrder.py 32] 测试结果为Pass
[2022-02-12 23:24:42,471] INFO [TestCase_Log testcase_log.py 9] 测试用例：selectOrder_para_mix
[2022-02-12 23:24:42,471] INFO [TestCase_Log testcase_log.py 10] Url：http://192.168.107.135:80/freshO2O/indentSelect.action
[2022-02-12 23:24:42,471] INFO [TestCase_Log testcase_log.py 11] 请求参数：{"id":"1","gotoPage":"0","totalPage":1}
[2022-02-12 23:24:42,471] INFO [TestCase_Log testcase_log.py 12] 期望结果：{"result":"ok"}
[2022-02-12 23:24:42,472] INFO [TestCase_Log testcase_log.py 13] 实际结果：{"account":null,"gotoPage":0,"id":0,"list":[{"GAmount":30.0,"GId":10,"GName":"大米","GNum":10,"GPrice":3.0,"OAddr":"广州市天河区","OState":"已发货","OTime":"2016-03-20T00:00:00","account":"zhangsan","id":1}],"msg":"","pageCount":12,"pageIndex":1,"result":"ok","totalCount":3,"totalPage":1}
[2022-02-12 23:24:42,472] INFO [testselectOrder testcase_07_selectOrder.py 32] 测试结果为Pass
[2022-02-12 23:24:42,611] INFO [TestCase_Log testcase_log.py 9] 测试用例：selectOrder_para_type
[2022-02-12 23:24:42,611] INFO [TestCase_Log testcase_log.py 10] Url：http://192.168.107.135:80/freshO2O/indentSelect.action
[2022-02-12 23:24:42,611] INFO [TestCase_Log testcase_log.py 11] 请求参数：{"id":"1","gotoPage":"0.1"}
[2022-02-12 23:24:42,612] INFO [TestCase_Log testcase_log.py 12] 期望结果：{"result":"fail"}
[2022-02-12 23:24:42,612] INFO [TestCase_Log testcase_log.py 13] 实际结果：<html><head><title>Apache Tomcat/6.0.14 - Error report</title><style><!--H1 {font-family:Tahoma,Arial,sans-serif;color:white;background-color:#525D76;font-size:22px;} H2 {font-family:Tahoma,Arial,sans-serif;color:white;background-color:#525D76;font-size:16px;} H3 {font-family:Tahoma,Arial,sans-serif;color:white;background-color:#525D76;font-size:14px;} BODY {font-family:Tahoma,Arial,sans-serif;color:black;background-color:white;} B {font-family:Tahoma,Arial,sans-serif;color:white;background-color:#525D76;} P {font-family:Tahoma,Arial,sans-serif;background:white;color:black;font-size:12px;}A {color : black;}A.name {color : black;}HR {color : #525D76;}--></style> </head><body><h1>HTTP Status 404 - No result defined for action com.freshO2O.action.IndentSelectAction and result input</h1><HR size="1" noshade="noshade"><p><b>type</b> Status report</p><p><b>message</b> <u>No result defined for action com.freshO2O.action.IndentSelectAction and result input</u></p><p><b>description</b> <u>The requested resource (No result defined for action com.freshO2O.action.IndentSelectAction and result input) is not available.</u></p><HR size="1" noshade="noshade"><h3>Apache Tomcat/6.0.14</h3></body></html>
[2022-02-12 23:24:42,612] INFO [testselectOrder testcase_07_selectOrder.py 39] 状态码错误,测试结果为Fail
[2022-02-12 23:24:42,673] INFO [TestCase_Log testcase_log.py 9] 测试用例：selectOrder_bypass_ui
[2022-02-12 23:24:42,673] INFO [TestCase_Log testcase_log.py 10] Url：http://192.168.107.135:80/freshO2O/indentSelect.action
[2022-02-12 23:24:42,674] INFO [TestCase_Log testcase_log.py 11] 请求参数：{"id":"1","gotoPage":"-2"}
[2022-02-12 23:24:42,674] INFO [TestCase_Log testcase_log.py 12] 期望结果：{"result":"fail"}
[2022-02-12 23:24:42,674] INFO [TestCase_Log testcase_log.py 13] 实际结果：<html><head><title>Apache Tomcat/6.0.14 - Error report</title><style><!--H1 {font-family:Tahoma,Arial,sans-serif;color:white;background-color:#525D76;font-size:22px;} H2 {font-family:Tahoma,Arial,sans-serif;color:white;background-color:#525D76;font-size:16px;} H3 {font-family:Tahoma,Arial,sans-serif;color:white;background-color:#525D76;font-size:14px;} BODY {font-family:Tahoma,Arial,sans-serif;color:black;background-color:white;} B {font-family:Tahoma,Arial,sans-serif;color:white;background-color:#525D76;} P {font-family:Tahoma,Arial,sans-serif;background:white;color:black;font-size:12px;}A {color : black;}A.name {color : black;}HR {color : #525D76;}--></style> </head><body><h1>HTTP Status 404 - No result defined for action com.freshO2O.action.IndentSelectAction and result input</h1><HR size="1" noshade="noshade"><p><b>type</b> Status report</p><p><b>message</b> <u>No result defined for action com.freshO2O.action.IndentSelectAction and result input</u></p><p><b>description</b> <u>The requested resource (No result defined for action com.freshO2O.action.IndentSelectAction and result input) is not available.</u></p><HR size="1" noshade="noshade"><h3>Apache Tomcat/6.0.14</h3></body></html>
[2022-02-12 23:24:42,675] INFO [testselectOrder testcase_07_selectOrder.py 39] 状态码错误,测试结果为Fail
[2022-02-12 23:24:42,744] INFO [TestCase_Log testcase_log.py 9] 测试用例：selectOrder_para_opposite
[2022-02-12 23:24:42,744] INFO [TestCase_Log testcase_log.py 10] Url：http://192.168.107.135:80/freshO2O/indentSelect.action
[2022-02-12 23:24:42,744] INFO [TestCase_Log testcase_log.py 11] 请求参数：{"gotoPage":"0"}
[2022-02-12 23:24:42,745] INFO [TestCase_Log testcase_log.py 12] 期望结果：{"result":"fail"}
[2022-02-12 23:24:42,745] INFO [TestCase_Log testcase_log.py 13] 实际结果：<html><head><title>Apache Tomcat/6.0.14 - Error report</title><style><!--H1 {font-family:Tahoma,Arial,sans-serif;color:white;background-color:#525D76;font-size:22px;} H2 {font-family:Tahoma,Arial,sans-serif;color:white;background-color:#525D76;font-size:16px;} H3 {font-family:Tahoma,Arial,sans-serif;color:white;background-color:#525D76;font-size:14px;} BODY {font-family:Tahoma,Arial,sans-serif;color:black;background-color:white;} B {font-family:Tahoma,Arial,sans-serif;color:white;background-color:#525D76;} P {font-family:Tahoma,Arial,sans-serif;background:white;color:black;font-size:12px;}A {color : black;}A.name {color : black;}HR {color : #525D76;}--></style> </head><body><h1>HTTP Status 404 - No result defined for action com.freshO2O.action.IndentSelectAction and result input</h1><HR size="1" noshade="noshade"><p><b>type</b> Status report</p><p><b>message</b> <u>No result defined for action com.freshO2O.action.IndentSelectAction and result input</u></p><p><b>description</b> <u>The requested resource (No result defined for action com.freshO2O.action.IndentSelectAction and result input) is not available.</u></p><HR size="1" noshade="noshade"><h3>Apache Tomcat/6.0.14</h3></body></html>
[2022-02-12 23:24:42,745] INFO [testselectOrder testcase_07_selectOrder.py 39] 状态码错误,测试结果为Fail
[2022-02-12 23:24:42,834] INFO [TestCase_Log testcase_log.py 9] 测试用例：selectOrder_business_logic
[2022-02-12 23:24:42,834] INFO [TestCase_Log testcase_log.py 10] Url：http://192.168.107.135:80/freshO2O/indentSelect.action
[2022-02-12 23:24:42,835] INFO [TestCase_Log testcase_log.py 11] 请求参数：{"id":"1","gotoPage":"0","gotoPage":"-1"}
[2022-02-12 23:24:42,835] INFO [TestCase_Log testcase_log.py 12] 期望结果：{"result":"fail"}
[2022-02-12 23:24:42,836] INFO [TestCase_Log testcase_log.py 13] 实际结果：<html><head><title>Apache Tomcat/6.0.14 - Error report</title><style><!--H1 {font-family:Tahoma,Arial,sans-serif;color:white;background-color:#525D76;font-size:22px;} H2 {font-family:Tahoma,Arial,sans-serif;color:white;background-color:#525D76;font-size:16px;} H3 {font-family:Tahoma,Arial,sans-serif;color:white;background-color:#525D76;font-size:14px;} BODY {font-family:Tahoma,Arial,sans-serif;color:black;background-color:white;} B {font-family:Tahoma,Arial,sans-serif;color:white;background-color:#525D76;} P {font-family:Tahoma,Arial,sans-serif;background:white;color:black;font-size:12px;}A {color : black;}A.name {color : black;}HR {color : #525D76;}--></style> </head><body><h1>HTTP Status 404 - No result defined for action com.freshO2O.action.IndentSelectAction and result input</h1><HR size="1" noshade="noshade"><p><b>type</b> Status report</p><p><b>message</b> <u>No result defined for action com.freshO2O.action.IndentSelectAction and result input</u></p><p><b>description</b> <u>The requested resource (No result defined for action com.freshO2O.action.IndentSelectAction and result input) is not available.</u></p><HR size="1" noshade="noshade"><h3>Apache Tomcat/6.0.14</h3></body></html>
[2022-02-12 23:24:42,837] INFO [testselectOrder testcase_07_selectOrder.py 39] 状态码错误,测试结果为Fail
[2022-02-12 23:24:42,880] INFO [tearDownClass testcase_07_selectOrder.py 18] selectOrder接口用例页结束
